…
``` r
data
```

    ## # A tibble: 23,922 × 8
    ##    filename PoolID Foundation_spp Removal_Control Date.Time Temp.C Intensity.lux
    ##    <chr>     <dbl> <chr>          <chr>           <chr>      <dbl>         <dbl>
    ##  1 /Users/…      1 Phyllospadix   Control         6/16/19 …  10.2              0
    ##  2 /Users/…      1 Phyllospadix   Control         6/16/19 …  10.1              0
    ##  3 /Users/…      1 Phyllospadix   Control         6/16/19 …  10.2              0
    ##  4 /Users/…      1 Phyllospadix   Control         6/16/19 …  10.1              0
    ##  5 /Users/…      1 Phyllospadix   Control         6/16/19 …  10.1              0
    ##  6 /Users/…      1 Phyllospadix   Control         6/16/19 …  10.1              0
    ##  7 /Users/…      1 Phyllospadix   Control         6/16/19 …  10.0              0
    ##  8 /Users/…      1 Phyllospadix   Control         6/16/19 …  10.0              0
    ##  9 /Users/…      1 Phyllospadix   Control         6/16/19 …   9.95             0
    ## 10 /Users/…      1 Phyllospadix   Control         6/16/19 …   9.56             0
    ## # ℹ 23,912 more rows
    ## # ℹ 1 more variable: LoggerDepth <dbl>
…
